{
    "name": "Hello World",
    "description": "Atlassian Connect app",
    "key": "com.example.myapp",
    "baseUrl": "https://da7293379773.ngrok.io",
    "vendor": {
        "name": "Example, Inc.",
        "url": "http://example.com"
    },
    "authentication": {
        "type": "none"
    },
    "apiVersion": 1,
    "modules": {
        "generalPages": [
            {
                "url": "/helloworld.html",
                "key": "hello-world",
                "location": "system.top.navigation.bar",
                "name": {
                    "value": "Greeting"
                }
            }
        ],
        "webPanels": [
            {
                "key": "example-issue-right-panel",
                "location": "atl.jira.view.issue.right.context",
                "name": {
                    "value": "Hello world"
                },
                "url": "/relatedConfluenceLinks.html"
            }
        ],
        "webItems": [
            {
                "location": "jira.software.board.tools",
                "weight": 200,
                "styleClasses": [
                    "webitem",
                    "system-present-webitem"
                ],
                "url": "/helloworld.html",
                "context": "addon",
                "tooltip": {
                    "value": "Board Readme"
                },
                "icon": {
                    "width": 24,
                    "height": 24,
                    "url": "/static/img/info.png"
                },
                "name": {
                    "value": "Hello-World!"
                },
                "key": "web-item-board"
            },
            {
                "key": "example-tools-item",
                "location": "jira.issue.tools",
                "weight": 200,
                "name": {
                    "value": "Hello world"
                },
                "url": "/example-section-link"
            }
        ],
        "dialogs": [
            {
                "url": "/static/index.html?board_id={board.id}",
                "options": {
                    "chrome": false,
                    "header": {
                        "value": "Hello-World!"
                    },
                    "size": "x-large"
                },
                "key": "dialog-module-readme"
            }
        ]
    }
}